%YAML 1.1
%TAG !u! tag:unity3d.com,2011:
--- !u!114 &-4116949330467530710
MonoBehaviour:
  m_ObjectHideFlags: 11
  m_CorrespondingSourceObject: {fileID: 0}
  m_PrefabInstance: {fileID: 0}
  m_PrefabAsset: {fileID: 0}
  m_GameObject: {fileID: 0}
  m_Enabled: 1
  m_EditorHideFlags: 0
  m_Script: {fileID: 11500000, guid: d0353a89b1f911e48b9e16bdc9f2e058, type: 3}
  m_Name: 
  m_EditorClassIdentifier: 
  version: 1
--- !u!21 &2100000
Material:
  serializedVersion: 6
  m_ObjectHideFlags: 0
  m_CorrespondingSourceObject: {fileID: 0}
  m_PrefabInstance: {fileID: 0}
  m_PrefabAsset: {fileID: 0}
  m_Name: Material
  m_Shader: {fileID: -6465566751694194690, guid: 26873caba7d25f546aa0bea3f6f02f40,
    type: 3}
  m_ShaderKeywords: 
  m_LightmapFlags: 4
  m_EnableInstancingVariants: 0
  m_DoubleSidedGI: 0
  m_CustomRenderQueue: -1
  stringTagMap: {}
  disabledShaderPasses: []
  m_SavedProperties:
    serializedVersion: 3
    m_TexEnvs: []
    m_Floats:
    - Vector1_2864D5AA: 0.003
    - Vector1_495EB1AE: 4
    - Vector1_BECED07E: 700
    - Vector1_F9A27E9C: 1
    m_Colors:
    - Color_5022597F: {r: 0, g: 1.109455, b: 1.341177, a: 0}
    - Color_98D7669A: {r: 0.8313726, g: 1.803922, b: 2, a: 0}
  m_BuildTextureStacks: []
